^Z:\CS5101\HW2\CALCUNITTEST\DEBUG\CALCMODELTEST.OBJ|Z:\CS5101\HW2\CALCUNITTEST\DEBUG\STDAFX.OBJ
Z:\CS5101\HW2\DEBUG\CALCUNITTEST.ILK
Z:\CS5101\HW2\DEBUG\CALCUNITTEST.DLL
Z:\CS5101\HW2\DEBUG\CALCUNITTEST.PDB
